{
  "artifactGenerations" : [ ],
  "artifactId" : "legend-service-demo",
  "groupId" : "com.scottlogic.legend",
  "metamodelDependencies" : [ ],
  "projectDependencies" : [ ],
  "projectId" : "53583584",
  "projectStructureVersion" : {
    "extensionVersion" : 2,
    "version" : 12
  }
}